Suite/Test/Step Name,Browser,Description,Tag,Start time,End time,Duration,Status
Access,Chrome 88.0.4324.150,,,2021-02-17 10:19:51,2021-02-17 10:23:55,4m - 3.867s,FAILED
,,,,,,,
Test Cases/Login/Role/Automation Test Approver,Chrome 88.0.4324.150,Direct to Automation Test Submitter,,2021-02-17 10:19:53,2021-02-17 10:20:39,46.074s,PASSED
"callTestCase(findTestCase(""Login/Login - Neva""), [""email"":""neva.ramadhan@xsis.net"", ""password"":""!6SdiP""], STOP_ON_FAILURE)",Chrome 88.0.4324.150,,,2021-02-17 10:19:54,2021-02-17 10:20:38,43.635s,PASSED
"switchToWindowTitle(""Welcome to New TESSA"")",Chrome 88.0.4324.150,,,2021-02-17 10:20:38,2021-02-17 10:20:38,0.096s,PASSED
waitForPageLoad(3),Chrome 88.0.4324.150,,,2021-02-17 10:20:38,2021-02-17 10:20:38,0.016s,PASSED
"click(findTestObject(""Login/dropdown_role2""))",Chrome 88.0.4324.150,,,2021-02-17 10:20:38,2021-02-17 10:20:38,0.552s,PASSED
"click(findTestObject(""Login/button_Automation Test Approver""))",Chrome 88.0.4324.150,,,2021-02-17 10:20:38,2021-02-17 10:20:39,0.888s,PASSED
,,,,,,,
Test Cases/Travel Settlement/Travel Settlement_Access Travel Request,Chrome 88.0.4324.150,,,2021-02-17 10:20:39,2021-02-17 10:20:46,6.816s,PASSED
"click(findTestObject(""Dashboard/button_Travel""))",Chrome 88.0.4324.150,,,2021-02-17 10:20:40,2021-02-17 10:20:41,1.102s,PASSED
"click(findTestObject(""Dashboard/button_Travel Request""))",Chrome 88.0.4324.150,,,2021-02-17 10:20:41,2021-02-17 10:20:42,0.766s,PASSED
"click(findTestObject(""Travel Settlement/Button_Filter Travel Request""))",Chrome 88.0.4324.150,,,2021-02-17 10:20:42,2021-02-17 10:20:43,0.968s,PASSED
"check(findTestObject(""Travel Settlement/Checkbox_Filter Travel Request""))",Chrome 88.0.4324.150,,,2021-02-17 10:20:43,2021-02-17 10:20:46,2.715s,PASSED
"click(findTestObject(""Travel Settlement/button_Apply""))",Chrome 88.0.4324.150,,,2021-02-17 10:20:46,2021-02-17 10:20:46,0.490s,PASSED
,,,,,,,
Test Cases/Login/Role/Automation Test Submitter,Chrome 88.0.4324.150,Direct to Automation Test Submitter,,2021-02-17 10:20:46,2021-02-17 10:21:37,50.601s,PASSED
"callTestCase(findTestCase(""Login/Login - Della""), [:], STOP_ON_FAILURE)",Chrome 88.0.4324.150,,,2021-02-17 10:20:47,2021-02-17 10:21:35,48.174s,PASSED
"switchToWindowTitle(""Welcome to New TESSA"")",Chrome 88.0.4324.150,,,2021-02-17 10:21:35,2021-02-17 10:21:35,0.054s,PASSED
waitForPageLoad(3),Chrome 88.0.4324.150,,,2021-02-17 10:21:35,2021-02-17 10:21:35,0.023s,PASSED
"click(findTestObject(""Login/dropdown_role""))",Chrome 88.0.4324.150,,,2021-02-17 10:21:35,2021-02-17 10:21:36,0.557s,PASSED
"click(findTestObject(""Login/button_Automation Test Submitter""))",Chrome 88.0.4324.150,,,2021-02-17 10:21:36,2021-02-17 10:21:37,1.201s,PASSED
,,,,,,,
Test Cases/Travel Settlement/Travel Settlement_Access Travel Request,Chrome 88.0.4324.150,,,2021-02-17 10:21:37,2021-02-17 10:21:46,8.791s,PASSED
"click(findTestObject(""Dashboard/button_Travel""))",Chrome 88.0.4324.150,,,2021-02-17 10:21:37,2021-02-17 10:21:38,0.657s,PASSED
"click(findTestObject(""Dashboard/button_Travel Request""))",Chrome 88.0.4324.150,,,2021-02-17 10:21:38,2021-02-17 10:21:41,3.800s,PASSED
"click(findTestObject(""Travel Settlement/Button_Filter Travel Request""))",Chrome 88.0.4324.150,,,2021-02-17 10:21:41,2021-02-17 10:21:44,2.717s,PASSED
"check(findTestObject(""Travel Settlement/Checkbox_Filter Travel Request""))",Chrome 88.0.4324.150,,,2021-02-17 10:21:44,2021-02-17 10:21:45,0.963s,PASSED
"click(findTestObject(""Travel Settlement/button_Apply""))",Chrome 88.0.4324.150,,,2021-02-17 10:21:45,2021-02-17 10:21:46,0.626s,PASSED
,,,,,,,
Test Cases/Login/Role/Curriculum Specialist,Chrome 88.0.4324.150,Direct to Automation Test Submitter,,2021-02-17 10:21:46,2021-02-17 10:22:33,47.104s,PASSED
"callTestCase(findTestCase(""Login/Login - Della""), [""email"":""della.mutiara@xsis.net"", ""password"":""wD1BuJ&""], STOP_ON_FAILURE)",Chrome 88.0.4324.150,,,2021-02-17 10:21:47,2021-02-17 10:22:30,43.620s,PASSED
"switchToWindowTitle(""Welcome to New TESSA"")",Chrome 88.0.4324.150,,,2021-02-17 10:22:30,2021-02-17 10:22:30,0.142s,PASSED
waitForPageLoad(3),Chrome 88.0.4324.150,,,2021-02-17 10:22:30,2021-02-17 10:22:30,0.015s,PASSED
"click(findTestObject(""Login/dropdown_role""))",Chrome 88.0.4324.150,,,2021-02-17 10:22:30,2021-02-17 10:22:31,0.966s,PASSED
"click(findTestObject(""Login/button_Curriculum Specialist""))",Chrome 88.0.4324.150,,,2021-02-17 10:22:31,2021-02-17 10:22:33,1.535s,PASSED
,,,,,,,
Test Cases/Travel Settlement/Travel Settlement_Access Travel Request,Chrome 88.0.4324.150,,,2021-02-17 10:22:33,2021-02-17 10:22:39,5.638s,PASSED
"click(findTestObject(""Dashboard/button_Travel""))",Chrome 88.0.4324.150,,,2021-02-17 10:22:33,2021-02-17 10:22:35,1.832s,PASSED
"click(findTestObject(""Dashboard/button_Travel Request""))",Chrome 88.0.4324.150,,,2021-02-17 10:22:35,2021-02-17 10:22:36,0.766s,PASSED
"click(findTestObject(""Travel Settlement/Button_Filter Travel Request""))",Chrome 88.0.4324.150,,,2021-02-17 10:22:36,2021-02-17 10:22:37,1.324s,PASSED
"check(findTestObject(""Travel Settlement/Checkbox_Filter Travel Request""))",Chrome 88.0.4324.150,,,2021-02-17 10:22:37,2021-02-17 10:22:38,1.046s,PASSED
"click(findTestObject(""Travel Settlement/button_Apply""))",Chrome 88.0.4324.150,,,2021-02-17 10:22:38,2021-02-17 10:22:39,0.569s,PASSED
,,,,,,,
Test Cases/Login/Role/Named Account BDM,Chrome 88.0.4324.150,Direct to Automation Test Submitter,,2021-02-17 10:22:39,2021-02-17 10:23:23,44.593s,PASSED
"callTestCase(findTestCase(""Login/Login - Neva""), [""email"":""neva.ramadhan@xsis.net"", ""password"":""!6SdiP""], STOP_ON_FAILURE)",Chrome 88.0.4324.150,,,2021-02-17 10:22:39,2021-02-17 10:23:22,42.250s,PASSED
"switchToWindowTitle(""Welcome to New TESSA"")",Chrome 88.0.4324.150,,,2021-02-17 10:23:22,2021-02-17 10:23:22,0.050s,PASSED
waitForPageLoad(3),Chrome 88.0.4324.150,,,2021-02-17 10:23:22,2021-02-17 10:23:22,0.021s,PASSED
"click(findTestObject(""Login/dropdown_role2""))",Chrome 88.0.4324.150,,,2021-02-17 10:23:22,2021-02-17 10:23:22,0.504s,PASSED
"click(findTestObject(""Login/button_Named Account BDM""))",Chrome 88.0.4324.150,,,2021-02-17 10:23:22,2021-02-17 10:23:23,1.123s,PASSED
,,,,,,,
Test Cases/Travel Settlement/Travel Settlement_Access Travel Request,Chrome 88.0.4324.150,,,2021-02-17 10:23:23,2021-02-17 10:23:55,31.898s,FAILED
"click(findTestObject(""Dashboard/button_Travel""))",Chrome 88.0.4324.150,,,2021-02-17 10:23:23,2021-02-17 10:23:55,31.830s,FAILED
