Suite/Test/Step Name,Browser,Description,Tag,Start time,End time,Duration,Status
FilterRequest,Chrome 88.0.4324.150,,,2021-02-17 16:28:34,2021-02-17 16:29:15,41.500s,PASSED
,,,,,,,
Test Cases/Login/0Role/Automation Test Submitter,Chrome 88.0.4324.150,Direct to Automation Test Submitter,,2021-02-17 16:28:35,2021-02-17 16:29:10,35.113s,PASSED
"callTestCase(findTestCase(""Login/Login - Della""), [:], STOP_ON_FAILURE)",Chrome 88.0.4324.150,,,2021-02-17 16:28:36,2021-02-17 16:29:09,32.968s,PASSED
"switchToWindowTitle(""Welcome to New TESSA"")",Chrome 88.0.4324.150,,,2021-02-17 16:29:09,2021-02-17 16:29:09,0.076s,PASSED
waitForPageLoad(3),Chrome 88.0.4324.150,,,2021-02-17 16:29:09,2021-02-17 16:29:09,0.029s,PASSED
"click(findTestObject(""Login/dropdown_role""))",Chrome 88.0.4324.150,,,2021-02-17 16:29:09,2021-02-17 16:29:09,0.419s,PASSED
"click(findTestObject(""Login/button_Automation Test Submitter""))",Chrome 88.0.4324.150,,,2021-02-17 16:29:09,2021-02-17 16:29:10,0.830s,PASSED
,,,,,,,
Test Cases/Travel Settlement/Travel Settlement_Access Travel Request,Chrome 88.0.4324.150,Akses Travel Settlement melalui Travel Request,,2021-02-17 16:29:10,2021-02-17 16:29:15,4.702s,PASSED
"click(findTestObject(""Dashboard/button_Travel""))",Chrome 88.0.4324.150,,,2021-02-17 16:29:11,2021-02-17 16:29:12,0.551s,PASSED
"click(findTestObject(""Dashboard/button_Travel Request""))",Chrome 88.0.4324.150,,,2021-02-17 16:29:12,2021-02-17 16:29:12,0.717s,PASSED
"click(findTestObject(""Travel Settlement/Button_Filter Travel Request""))",Chrome 88.0.4324.150,,,2021-02-17 16:29:12,2021-02-17 16:29:13,0.997s,PASSED
"check(findTestObject(""Travel Settlement/Checkbox_Filter Travel Request""))",Chrome 88.0.4324.150,,,2021-02-17 16:29:13,2021-02-17 16:29:14,1.051s,PASSED
"click(findTestObject(""Travel Settlement/button_Apply""))",Chrome 88.0.4324.150,,,2021-02-17 16:29:14,2021-02-17 16:29:15,0.653s,PASSED
