Suite/Test/Step Name,Browser,Description,Tag,Start time,End time,Duration,Status
Search,Chrome 88.0.4324.150,,,2021-02-17 17:22:56,2021-02-17 17:25:11,2m - 15.355s,PASSED
,,,,,,,
Test Cases/Login/0Role/Automation Test Submitter,Chrome 88.0.4324.150,Direct to Automation Test Submitter,,2021-02-17 17:22:58,2021-02-17 17:23:53,55.623s,PASSED
"callTestCase(findTestCase(""Login/Login - Della""), [:], STOP_ON_FAILURE)",Chrome 88.0.4324.150,,,2021-02-17 17:22:59,2021-02-17 17:23:49,50.231s,PASSED
"switchToWindowTitle(""Welcome to New TESSA"")",Chrome 88.0.4324.150,,,2021-02-17 17:23:49,2021-02-17 17:23:50,0.622s,PASSED
waitForPageLoad(3),Chrome 88.0.4324.150,,,2021-02-17 17:23:50,2021-02-17 17:23:50,0.016s,PASSED
"click(findTestObject(""Login/dropdown_role""))",Chrome 88.0.4324.150,,,2021-02-17 17:23:50,2021-02-17 17:23:51,1.795s,PASSED
"click(findTestObject(""Login/button_Automation Test Submitter""))",Chrome 88.0.4324.150,,,2021-02-17 17:23:51,2021-02-17 17:23:53,2.105s,PASSED
,,,,,,,
Test Cases/Travel Settlement/Travel Settlement_Access Travel Settlement,Chrome 88.0.4324.150,,,2021-02-17 17:23:53,2021-02-17 17:23:59,5.901s,PASSED
"click(findTestObject(""Dashboard/button_Travel""))",Chrome 88.0.4324.150,,,2021-02-17 17:23:55,2021-02-17 17:23:58,2.264s,PASSED
"click(findTestObject(""Dashboard/button_Travel Settlement""))",Chrome 88.0.4324.150,,,2021-02-17 17:23:58,2021-02-17 17:23:59,1.794s,PASSED
,,,,,,,
Test Cases/Travel Settlement/6Search/Travel Settlement_Search,Chrome 88.0.4324.150,,,2021-02-17 17:23:59,2021-02-17 17:24:09,9.537s,PASSED
"setText(findTestObject(""Travel Settlement/6Search/input_search""), search)",Chrome 88.0.4324.150,,,2021-02-17 17:24:02,2021-02-17 17:24:05,3.035s,PASSED
"click(findTestObject(""Travel Settlement/6Search/button_dot3""))",Chrome 88.0.4324.150,,,2021-02-17 17:24:05,2021-02-17 17:24:07,1.749s,PASSED
"click(findTestObject(""Travel Settlement/6Search/option_search"", [""search"":""Target""]))",Chrome 88.0.4324.150,Input Var Search,,2021-02-17 17:24:07,2021-02-17 17:24:09,2.147s,PASSED
,,,,,,,
Test Cases/Login/0Role/Curriculum Specialist,Chrome 88.0.4324.150,Direct to Automation Test Submitter,,2021-02-17 17:24:09,2021-02-17 17:24:59,49.487s,PASSED
"callTestCase(findTestCase(""Login/Login - Della""), [""email"":""della.mutiara@xsis.net"", ""password"":""wD1BuJ&""], STOP_ON_FAILURE)",Chrome 88.0.4324.150,,,2021-02-17 17:24:10,2021-02-17 17:24:55,45.227s,PASSED
"switchToWindowTitle(""Welcome to New TESSA"")",Chrome 88.0.4324.150,,,2021-02-17 17:24:55,2021-02-17 17:24:55,0.053s,PASSED
waitForPageLoad(3),Chrome 88.0.4324.150,,,2021-02-17 17:24:55,2021-02-17 17:24:55,0.038s,PASSED
"click(findTestObject(""Login/dropdown_role""))",Chrome 88.0.4324.150,,,2021-02-17 17:24:55,2021-02-17 17:24:57,1.496s,PASSED
"click(findTestObject(""Login/button_Curriculum Specialist""))",Chrome 88.0.4324.150,,,2021-02-17 17:24:57,2021-02-17 17:24:59,1.831s,PASSED
,,,,,,,
Test Cases/Travel Settlement/Travel Settlement_Access Travel Settlement,Chrome 88.0.4324.150,,,2021-02-17 17:24:59,2021-02-17 17:25:03,4.015s,PASSED
"click(findTestObject(""Dashboard/button_Travel""))",Chrome 88.0.4324.150,,,2021-02-17 17:24:59,2021-02-17 17:25:01,2.316s,PASSED
"click(findTestObject(""Dashboard/button_Travel Settlement""))",Chrome 88.0.4324.150,,,2021-02-17 17:25:01,2021-02-17 17:25:03,1.619s,PASSED
,,,,,,,
Test Cases/Travel Settlement/6Search/Travel Settlement_Search,Chrome 88.0.4324.150,,,2021-02-17 17:25:03,2021-02-17 17:25:11,8.624s,PASSED
"setText(findTestObject(""Travel Settlement/6Search/input_search""), search)",Chrome 88.0.4324.150,,,2021-02-17 17:25:03,2021-02-17 17:25:08,4.746s,PASSED
"click(findTestObject(""Travel Settlement/6Search/button_dot3""))",Chrome 88.0.4324.150,,,2021-02-17 17:25:08,2021-02-17 17:25:10,2.152s,PASSED
"click(findTestObject(""Travel Settlement/6Search/option_search"", [""search"":""Target""]))",Chrome 88.0.4324.150,Input Var Search,,2021-02-17 17:25:10,2021-02-17 17:25:11,1.575s,PASSED
