Suite/Test/Step Name,Browser,Description,Tag,Start time,End time,Duration,Status
Add,Chrome 88.0.4324.150,,,2021-02-17 10:56:42,2021-02-17 10:58:52,2m - 10.663s,ERROR
,,,,,,,
Test Cases/Login/0Role/Automation Test Submitter,Chrome 88.0.4324.150,Direct to Automation Test Submitter,,2021-02-17 10:56:43,2021-02-17 10:58:23,1m - 39.690s,PASSED
"callTestCase(findTestCase(""Login/Login - Della""), [:], STOP_ON_FAILURE)",Chrome 88.0.4324.150,,,2021-02-17 10:56:44,2021-02-17 10:58:22,1m - 37.525s,PASSED
"switchToWindowTitle(""Welcome to New TESSA"")",Chrome 88.0.4324.150,,,2021-02-17 10:58:22,2021-02-17 10:58:22,0.049s,PASSED
waitForPageLoad(3),Chrome 88.0.4324.150,,,2021-02-17 10:58:22,2021-02-17 10:58:22,0.023s,PASSED
"click(findTestObject(""Login/dropdown_role""))",Chrome 88.0.4324.150,,,2021-02-17 10:58:22,2021-02-17 10:58:22,0.511s,PASSED
"click(findTestObject(""Login/button_Automation Test Submitter""))",Chrome 88.0.4324.150,,,2021-02-17 10:58:22,2021-02-17 10:58:23,0.815s,PASSED
,,,,,,,
Test Cases/Travel Settlement/Travel Settlement_Access Travel Request,Chrome 88.0.4324.150,Akses Travel Settlement melalui Travel Request,,2021-02-17 10:58:23,2021-02-17 10:58:28,5.032s,PASSED
"click(findTestObject(""Dashboard/button_Travel""))",Chrome 88.0.4324.150,,,2021-02-17 10:58:24,2021-02-17 10:58:24,0.574s,PASSED
"click(findTestObject(""Dashboard/button_Travel Request""))",Chrome 88.0.4324.150,,,2021-02-17 10:58:24,2021-02-17 10:58:25,0.768s,PASSED
"click(findTestObject(""Travel Settlement/Button_Filter Travel Request""))",Chrome 88.0.4324.150,,,2021-02-17 10:58:25,2021-02-17 10:58:26,1.067s,PASSED
"check(findTestObject(""Travel Settlement/Checkbox_Filter Travel Request""))",Chrome 88.0.4324.150,,,2021-02-17 10:58:26,2021-02-17 10:58:27,1.129s,PASSED
"click(findTestObject(""Travel Settlement/button_Apply""))",Chrome 88.0.4324.150,,,2021-02-17 10:58:27,2021-02-17 10:58:28,0.657s,PASSED
,,,,,,,
Test Cases/Travel Settlement/Travel Settlement_Select Data,Chrome 88.0.4324.150,Memilih data saat akses Travel Request,,2021-02-17 10:58:28,2021-02-17 10:58:32,4.109s,PASSED
"click(findTestObject(""Travel Settlement/selection_Data Travel Settlement""))",Chrome 88.0.4324.150,"div[2] = 1
",,2021-02-17 10:58:29,2021-02-17 10:58:29,0.426s,PASSED
"click(findTestObject(""Travel Settlement/button_details""))",Chrome 88.0.4324.150,"//*[@id=""root""]/div/main/div[*3*]/div[2]/div/div/div[2]/button",,2021-02-17 10:58:29,2021-02-17 10:58:30,0.744s,PASSED
"click(findTestObject(""Travel Settlement/0Add/button_dot3""))",Chrome 88.0.4324.150,,,2021-02-17 10:58:30,2021-02-17 10:58:31,0.727s,PASSED
"click(findTestObject(""Travel Settlement/0Add/option_AddSettlement""))",Chrome 88.0.4324.150,,,2021-02-17 10:58:31,2021-02-17 10:58:31,0.554s,PASSED
"click(findTestObject(""Travel Settlement/0Add/button_add_confirmation""))",Chrome 88.0.4324.150,,,2021-02-17 10:58:31,2021-02-17 10:58:32,0.862s,PASSED
,,,,,,,
Test Cases/Travel Settlement/0Add/Travel Settlement_Add,Chrome 88.0.4324.150,Menambahkan Data Travel,,2021-02-17 10:58:32,2021-02-17 10:58:52,20.131s,ERROR
delay(15),Chrome 88.0.4324.150,,,2021-02-17 10:58:33,2021-02-17 10:58:48,15.017s,PASSED
"click(findTestObject(""Travel Settlement/0Add/dropdown_transport type""))",Chrome 88.0.4324.150,,,2021-02-17 10:58:48,2021-02-17 10:58:49,0.430s,PASSED
"click(findTestObject(""Travel Settlement/0Add/option_Transport Type"", [""number"":""1""]))",Chrome 88.0.4324.150,"Input Value
",,2021-02-17 10:58:49,2021-02-17 10:58:49,0.622s,PASSED
"sendKeys(findTestObject(""Travel Settlement/0Add/input_from""), Keys.chord(CONTROL, ""A""))",Chrome 88.0.4324.150,,,2021-02-17 10:58:49,2021-02-17 10:58:50,0.495s,PASSED
"sendKeys(findTestObject(""Travel Settlement/0Add/input_from""), Keys.chord(DELETE))",Chrome 88.0.4324.150,,,2021-02-17 10:58:50,2021-02-17 10:58:50,0.534s,PASSED
"setText(findTestObject(""Travel Settlement/0Add/input_from""), from)",Chrome 88.0.4324.150,,,2021-02-17 10:58:50,2021-02-17 10:58:51,0.819s,PASSED
"sendKeys(findTestObject(""Travel Settlement/0Add/input_destination""), Keys.chord(ENTER, CONTROL))",Chrome 88.0.4324.150,,,2021-02-17 10:58:51,2021-02-17 10:58:52,0.427s,PASSED
"sendKeys(findTestObject(""Travel Settlement/0Add/input_destination""), Keys.chord(DELETE))",Chrome 88.0.4324.150,,,2021-02-17 10:58:52,2021-02-17 10:58:52,0.383s,PASSED
"setText(findTestObject(""Travel Settlement/0Add/input_destination""), javax.print.attribute.standard.Destination)",Chrome 88.0.4324.150,,,2021-02-17 10:58:52,2021-02-17 10:58:52,0.083s,PASSED
