Suite/Test/Step Name,Browser,Description,Tag,Start time,End time,Duration,Status
Add,Chrome 88.0.4324.150,,,2021-02-17 11:04:38,2021-02-17 11:05:45,1m - 6.213s,PASSED
,,,,,,,
Test Cases/Login/0Role/Automation Test Submitter,Chrome 88.0.4324.150,Direct to Automation Test Submitter,,2021-02-17 11:04:40,2021-02-17 11:05:16,36.218s,PASSED
"callTestCase(findTestCase(""Login/Login - Della""), [:], STOP_ON_FAILURE)",Chrome 88.0.4324.150,,,2021-02-17 11:04:41,2021-02-17 11:05:15,34.112s,PASSED
"switchToWindowTitle(""Welcome to New TESSA"")",Chrome 88.0.4324.150,,,2021-02-17 11:05:15,2021-02-17 11:05:15,0.083s,PASSED
waitForPageLoad(3),Chrome 88.0.4324.150,,,2021-02-17 11:05:15,2021-02-17 11:05:15,0.025s,PASSED
"click(findTestObject(""Login/dropdown_role""))",Chrome 88.0.4324.150,,,2021-02-17 11:05:15,2021-02-17 11:05:15,0.408s,PASSED
"click(findTestObject(""Login/button_Automation Test Submitter""))",Chrome 88.0.4324.150,,,2021-02-17 11:05:15,2021-02-17 11:05:16,0.836s,PASSED
,,,,,,,
Test Cases/Travel Settlement/Travel Settlement_Access Travel Request,Chrome 88.0.4324.150,Akses Travel Settlement melalui Travel Request,,2021-02-17 11:05:16,2021-02-17 11:05:22,5.612s,PASSED
"click(findTestObject(""Dashboard/button_Travel""))",Chrome 88.0.4324.150,,,2021-02-17 11:05:17,2021-02-17 11:05:17,0.585s,PASSED
"click(findTestObject(""Dashboard/button_Travel Request""))",Chrome 88.0.4324.150,,,2021-02-17 11:05:17,2021-02-17 11:05:18,0.946s,PASSED
"click(findTestObject(""Travel Settlement/Button_Filter Travel Request""))",Chrome 88.0.4324.150,,,2021-02-17 11:05:18,2021-02-17 11:05:20,1.680s,PASSED
"check(findTestObject(""Travel Settlement/Checkbox_Filter Travel Request""))",Chrome 88.0.4324.150,,,2021-02-17 11:05:20,2021-02-17 11:05:21,1.088s,PASSED
"click(findTestObject(""Travel Settlement/button_Apply""))",Chrome 88.0.4324.150,,,2021-02-17 11:05:21,2021-02-17 11:05:22,0.636s,PASSED
,,,,,,,
Test Cases/Travel Settlement/Travel Settlement_Select Data,Chrome 88.0.4324.150,Memilih data saat akses Travel Request,,2021-02-17 11:05:22,2021-02-17 11:05:27,5.301s,PASSED
"click(findTestObject(""Travel Settlement/selection_Data Travel Settlement""))",Chrome 88.0.4324.150,"div[2] = 1
",,2021-02-17 11:05:22,2021-02-17 11:05:23,0.458s,PASSED
"click(findTestObject(""Travel Settlement/button_details""))",Chrome 88.0.4324.150,"//*[@id=""root""]/div/main/div[*3*]/div[2]/div/div/div[2]/button",,2021-02-17 11:05:23,2021-02-17 11:05:24,0.705s,PASSED
"click(findTestObject(""Travel Settlement/0Add/button_dot3""))",Chrome 88.0.4324.150,,,2021-02-17 11:05:24,2021-02-17 11:05:24,0.779s,PASSED
"click(findTestObject(""Travel Settlement/0Add/option_AddSettlement""))",Chrome 88.0.4324.150,,,2021-02-17 11:05:24,2021-02-17 11:05:25,1.131s,PASSED
"click(findTestObject(""Travel Settlement/0Add/button_add_confirmation""))",Chrome 88.0.4324.150,,,2021-02-17 11:05:25,2021-02-17 11:05:27,1.601s,PASSED
,,,,,,,
Test Cases/Travel Settlement/0Add/Travel Settlement_Add,Chrome 88.0.4324.150,Menambahkan Data Travel,,2021-02-17 11:05:27,2021-02-17 11:05:45,17.343s,PASSED
"click(findTestObject(""Travel Settlement/0Add/dropdown_transport type""))",Chrome 88.0.4324.150,,,2021-02-17 11:05:28,2021-02-17 11:05:29,0.425s,PASSED
"click(findTestObject(""Travel Settlement/0Add/option_Transport Type"", [""number"":""1""]))",Chrome 88.0.4324.150,"Input Value
",,2021-02-17 11:05:29,2021-02-17 11:05:30,0.800s,PASSED
"sendKeys(findTestObject(""Travel Settlement/0Add/input_from""), Keys.chord(CONTROL, ""A""))",Chrome 88.0.4324.150,,,2021-02-17 11:05:30,2021-02-17 11:05:30,0.575s,PASSED
"sendKeys(findTestObject(""Travel Settlement/0Add/input_from""), Keys.chord(DELETE))",Chrome 88.0.4324.150,,,2021-02-17 11:05:30,2021-02-17 11:05:31,0.529s,PASSED
"setText(findTestObject(""Travel Settlement/0Add/input_from""), from)",Chrome 88.0.4324.150,,,2021-02-17 11:05:31,2021-02-17 11:05:31,0.810s,PASSED
"sendKeys(findTestObject(""Travel Settlement/0Add/input_destination""), Keys.chord(CONTROL, ""A""))",Chrome 88.0.4324.150,,,2021-02-17 11:05:31,2021-02-17 11:05:32,0.426s,PASSED
"sendKeys(findTestObject(""Travel Settlement/0Add/input_destination""), Keys.chord(DELETE))",Chrome 88.0.4324.150,,,2021-02-17 11:05:32,2021-02-17 11:05:32,0.431s,PASSED
"setText(findTestObject(""Travel Settlement/0Add/input_destination""), destination)",Chrome 88.0.4324.150,,,2021-02-17 11:05:32,2021-02-17 11:05:33,0.782s,PASSED
"click(findTestObject(""Travel Settlement/0Add/input_departureDate""))",Chrome 88.0.4324.150,,,2021-02-17 11:05:33,2021-02-17 11:05:34,0.906s,PASSED
"click(findTestObject(""Object Repository/Travel Settlement/0Add/button_Today""))",Chrome 88.0.4324.150,,,2021-02-17 11:05:34,2021-02-17 11:05:35,0.544s,PASSED
"click(findTestObject(""Object Repository/Travel Settlement/0Add/button_OK""))",Chrome 88.0.4324.150,,,2021-02-17 11:05:35,2021-02-17 11:05:35,0.534s,PASSED
"click(findTestObject(""Travel Settlement/0Add/input_returnDate""))",Chrome 88.0.4324.150,,,2021-02-17 11:05:35,2021-02-17 11:05:36,0.769s,PASSED
"click(findTestObject(""Object Repository/Travel Settlement/0Add/button_Today""))",Chrome 88.0.4324.150,,,2021-02-17 11:05:36,2021-02-17 11:05:36,0.473s,PASSED
"click(findTestObject(""Object Repository/Travel Settlement/0Add/span_OK""))",Chrome 88.0.4324.150,,,2021-02-17 11:05:36,2021-02-17 11:05:37,0.726s,PASSED
"sendKeys(findTestObject(""Travel Settlement/0Add/input_Transport Cost""), Keys.chord(CONTROL, ""A""))",Chrome 88.0.4324.150,,,2021-02-17 11:05:37,2021-02-17 11:05:38,0.668s,PASSED
"sendKeys(findTestObject(""Travel Settlement/0Add/input_Transport Cost""), Keys.chord(BACK_SPACE))",Chrome 88.0.4324.150,,,2021-02-17 11:05:38,2021-02-17 11:05:38,0.440s,PASSED
"setText(findTestObject(""Travel Settlement/0Add/input_Transport Cost""), transport_cost)",Chrome 88.0.4324.150,,,2021-02-17 11:05:38,2021-02-17 11:05:39,0.807s,PASSED
"sendKeys(findTestObject(""Travel Settlement/0Add/input_Hotel Name""), Keys.chord(CONTROL, ""A""))",Chrome 88.0.4324.150,,,2021-02-17 11:05:39,2021-02-17 11:05:39,0.451s,PASSED
"sendKeys(findTestObject(""Travel Settlement/0Add/input_Hotel Name""), Keys.chord(BACK_SPACE))",Chrome 88.0.4324.150,,,2021-02-17 11:05:39,2021-02-17 11:05:40,0.385s,PASSED
"setText(findTestObject(""Travel Settlement/0Add/input_Hotel Name""), hotel_name)",Chrome 88.0.4324.150,,,2021-02-17 11:05:40,2021-02-17 11:05:41,0.790s,PASSED
"sendKeys(findTestObject(""Travel Settlement/0Add/input_Hotel Cost""), Keys.chord(CONTROL, ""A""))",Chrome 88.0.4324.150,,,2021-02-17 11:05:41,2021-02-17 11:05:41,0.422s,PASSED
"sendKeys(findTestObject(""Travel Settlement/0Add/input_Hotel Cost""), Keys.chord(BACK_SPACE))",Chrome 88.0.4324.150,,,2021-02-17 11:05:41,2021-02-17 11:05:41,0.386s,PASSED
"setText(findTestObject(""Travel Settlement/0Add/input_Hotel Cost""), hotel_cost)",Chrome 88.0.4324.150,,,2021-02-17 11:05:41,2021-02-17 11:05:42,0.759s,PASSED
"scrollToPosition(0, 0)",Chrome 88.0.4324.150,,,2021-02-17 11:05:42,2021-02-17 11:05:42,0.041s,PASSED
"click(findTestObject(""Object Repository/Travel Settlement/0Add/button_Submit""))",Chrome 88.0.4324.150,,,2021-02-17 11:05:42,2021-02-17 11:05:43,0.442s,PASSED
"click(findTestObject(""Object Repository/Travel Settlement/0Add/button_Continue""))",Chrome 88.0.4324.150,,,2021-02-17 11:05:43,2021-02-17 11:05:43,0.540s,PASSED
"verifyElementText(findTestObject(""Object Repository/Travel Settlement/0Add/span_Summary Travel""), ""Summary Travel"")",Chrome 88.0.4324.150,,,2021-02-17 11:05:43,2021-02-17 11:05:45,1.348s,PASSED
