Suite/Test/Step Name,Browser,Description,Tag,Start time,End time,Duration,Status
TS_Position Access,Chrome 88.0.4324.150,Test Suite untuk mengakses menu Position,,2021-02-13 10:11:20,2021-02-13 10:15:23,4m - 3.075s,FAILED
,,,,,,,
Test Cases/Login/Automation Test Approver,Chrome 88.0.4324.150,Direct to Automation Test Submitter,,2021-02-13 10:11:21,2021-02-13 10:11:52,30.463s,PASSED
"callTestCase(findTestCase(""Login/Login - Neva""), [""email"":""neva.ramadhan@xsis.net"", ""password"":""!6SdiP""], STOP_ON_FAILURE)",Chrome 88.0.4324.150,,,2021-02-13 10:11:22,2021-02-13 10:11:47,25.205s,PASSED
"switchToWindowTitle(""Welcome to New TESSA"")",Chrome 88.0.4324.150,,,2021-02-13 10:11:47,2021-02-13 10:11:47,0.064s,PASSED
waitForPageLoad(3),Chrome 88.0.4324.150,,,2021-02-13 10:11:47,2021-02-13 10:11:47,0.011s,PASSED
"click(findTestObject(""Login/dropdown_Xsis Mitra Utama""))",Chrome 88.0.4324.150,,,2021-02-13 10:11:47,2021-02-13 10:11:51,3.579s,PASSED
"click(findTestObject(""Login/button_Automation Test Approver""))",Chrome 88.0.4324.150,,,2021-02-13 10:11:51,2021-02-13 10:11:52,0.889s,PASSED
,,,,,,,
Test Cases/Position/Position - TS,Chrome 88.0.4324.150,,,2021-02-13 10:11:52,2021-02-13 10:12:25,33.873s,FAILED
"click(findTestObject(""Object Repository/Position/div_Setup""))",Chrome 88.0.4324.150,,,2021-02-13 10:11:52,2021-02-13 10:11:54,1.360s,PASSED
"click(findTestObject(""Object Repository/Position/div_Position""))",Chrome 88.0.4324.150,,,2021-02-13 10:11:54,2021-02-13 10:12:25,31.881s,FAILED
,,,,,,,
Test Cases/Login/Automation Test Submitter,Chrome 88.0.4324.150,Direct to Automation Test Submitter,,2021-02-13 10:12:25,2021-02-13 10:12:51,25.774s,PASSED
"callTestCase(findTestCase(""Login/Login - Della""), [:], STOP_ON_FAILURE)",Chrome 88.0.4324.150,,,2021-02-13 10:12:26,2021-02-13 10:12:48,22.321s,PASSED
"switchToWindowTitle(""Welcome to New TESSA"")",Chrome 88.0.4324.150,,,2021-02-13 10:12:48,2021-02-13 10:12:48,0.031s,PASSED
waitForPageLoad(3),Chrome 88.0.4324.150,,,2021-02-13 10:12:48,2021-02-13 10:12:48,0.037s,PASSED
"click(findTestObject(""Login/dropdown_Xsis Mitra Utama""))",Chrome 88.0.4324.150,,,2021-02-13 10:12:48,2021-02-13 10:12:50,2.001s,PASSED
"click(findTestObject(""Login/button_Automation Test Submitter""))",Chrome 88.0.4324.150,,,2021-02-13 10:12:50,2021-02-13 10:12:51,0.797s,PASSED
,,,,,,,
Test Cases/Position/Position - TS,Chrome 88.0.4324.150,,,2021-02-13 10:12:51,2021-02-13 10:12:57,5.691s,PASSED
"click(findTestObject(""Object Repository/Position/div_Setup""))",Chrome 88.0.4324.150,,,2021-02-13 10:12:51,2021-02-13 10:12:53,1.912s,PASSED
"click(findTestObject(""Object Repository/Position/div_Position""))",Chrome 88.0.4324.150,,,2021-02-13 10:12:53,2021-02-13 10:12:54,0.724s,PASSED
closeBrowser(),Chrome 88.0.4324.150,,,2021-02-13 10:12:54,2021-02-13 10:12:57,3.029s,PASSED
,,,,,,,
Test Cases/Login/Curriculum Specialist,Chrome 88.0.4324.150,Direct to Automation Test Submitter,,2021-02-13 10:12:57,2021-02-13 10:13:22,25.057s,PASSED
"callTestCase(findTestCase(""Login/Login - Della""), [""email"":""della.mutiara@xsis.net"", ""password"":""wD1BuJ&""], STOP_ON_FAILURE)",Chrome 88.0.4324.150,,,2021-02-13 10:12:57,2021-02-13 10:13:18,20.898s,PASSED
"switchToWindowTitle(""Welcome to New TESSA"")",Chrome 88.0.4324.150,,,2021-02-13 10:13:18,2021-02-13 10:13:18,0.027s,PASSED
waitForPageLoad(3),Chrome 88.0.4324.150,,,2021-02-13 10:13:18,2021-02-13 10:13:18,0.010s,PASSED
"click(findTestObject(""Login/dropdown_Xsis Mitra Utama""))",Chrome 88.0.4324.150,,,2021-02-13 10:13:18,2021-02-13 10:13:20,1.617s,PASSED
"click(findTestObject(""Login/button_Curriculum Specialist""))",Chrome 88.0.4324.150,,,2021-02-13 10:13:20,2021-02-13 10:13:22,2.071s,PASSED
,,,,,,,
Test Cases/Position/Position - TS,Chrome 88.0.4324.150,,,2021-02-13 10:13:22,2021-02-13 10:13:55,33.224s,FAILED
"click(findTestObject(""Object Repository/Position/div_Setup""))",Chrome 88.0.4324.150,,,2021-02-13 10:13:22,2021-02-13 10:13:24,1.594s,PASSED
"click(findTestObject(""Object Repository/Position/div_Position""))",Chrome 88.0.4324.150,,,2021-02-13 10:13:24,2021-02-13 10:13:55,31.577s,FAILED
,,,,,,,
Test Cases/Login/Named Account BDM,Chrome 88.0.4324.150,Direct to Automation Test Submitter,,2021-02-13 10:13:55,2021-02-13 10:14:51,55.715s,FAILED
"callTestCase(findTestCase(""Login/Login - Neva""), [""email"":""neva.ramadhan@xsis.net"", ""password"":""!6SdiP""], STOP_ON_FAILURE)",Chrome 88.0.4324.150,,,2021-02-13 10:13:56,2021-02-13 10:14:18,21.793s,PASSED
"switchToWindowTitle(""Welcome to New TESSA"")",Chrome 88.0.4324.150,,,2021-02-13 10:14:18,2021-02-13 10:14:18,0.024s,PASSED
waitForPageLoad(3),Chrome 88.0.4324.150,,,2021-02-13 10:14:18,2021-02-13 10:14:18,0.036s,PASSED
"click(findTestObject(""Login/dropdown_Xsis Mitra Utama""))",Chrome 88.0.4324.150,,,2021-02-13 10:14:18,2021-02-13 10:14:19,1.384s,PASSED
"click(findTestObject(""Login/button_Curriculum Specialist""))",Chrome 88.0.4324.150,,,2021-02-13 10:14:19,2021-02-13 10:14:51,31.979s,FAILED
,,,,,,,
Test Cases/Position/Position - TS,Chrome 88.0.4324.150,,,2021-02-13 10:14:51,2021-02-13 10:15:23,31.748s,FAILED
"click(findTestObject(""Object Repository/Position/div_Setup""))",Chrome 88.0.4324.150,,,2021-02-13 10:14:51,2021-02-13 10:15:23,31.718s,FAILED
