Suite/Test/Step Name,Browser,Description,Tag,Start time,End time,Duration,Status
FilterRequest,Chrome 88.0.4324.150,,,2021-02-17 16:37:40,2021-02-17 16:38:54,1m - 13.427s,PASSED
,,,,,,,
Test Cases/Login/0Role/Automation Test Submitter,Chrome 88.0.4324.150,Direct to Automation Test Submitter,,2021-02-17 16:37:42,2021-02-17 16:38:41,58.963s,PASSED
"callTestCase(findTestCase(""Login/Login - Della""), [:], STOP_ON_FAILURE)",Chrome 88.0.4324.150,,,2021-02-17 16:37:42,2021-02-17 16:38:37,54.641s,PASSED
"switchToWindowTitle(""Welcome to New TESSA"")",Chrome 88.0.4324.150,,,2021-02-17 16:38:37,2021-02-17 16:38:37,0.022s,PASSED
waitForPageLoad(3),Chrome 88.0.4324.150,,,2021-02-17 16:38:37,2021-02-17 16:38:37,0.027s,PASSED
"click(findTestObject(""Login/dropdown_role""))",Chrome 88.0.4324.150,,,2021-02-17 16:38:37,2021-02-17 16:38:39,1.474s,PASSED
"click(findTestObject(""Login/button_Automation Test Submitter""))",Chrome 88.0.4324.150,,,2021-02-17 16:38:39,2021-02-17 16:38:41,2.144s,PASSED
,,,,,,,
Test Cases/Travel Settlement/Travel Settlement_Access Travel Request,Chrome 88.0.4324.150,Akses Travel Settlement melalui Travel Request,,2021-02-17 16:38:41,2021-02-17 16:38:54,12.822s,PASSED
"click(findTestObject(""Dashboard/button_Travel""))",Chrome 88.0.4324.150,,,2021-02-17 16:38:42,2021-02-17 16:38:44,2.622s,PASSED
"click(findTestObject(""Dashboard/button_Travel Request""))",Chrome 88.0.4324.150,,,2021-02-17 16:38:44,2021-02-17 16:38:46,1.838s,PASSED
"click(findTestObject(""Travel Settlement/Button_Filter Travel Request""))",Chrome 88.0.4324.150,,,2021-02-17 16:38:46,2021-02-17 16:38:48,2.185s,PASSED
"check(findTestObject(""Travel Settlement/Checkbox_Filter Travel Request""))",Chrome 88.0.4324.150,,,2021-02-17 16:38:48,2021-02-17 16:38:52,3.314s,PASSED
"click(findTestObject(""Travel Settlement/button_Apply""))",Chrome 88.0.4324.150,,,2021-02-17 16:38:52,2021-02-17 16:38:54,2.134s,PASSED
