Suite/Test/Step Name,Browser,Description,Tag,Start time,End time,Duration,Status
Diem Value_Access,Edge Chromium 88,,,2021-02-15 22:03:51,2021-02-15 22:09:57,6m - 5.395s,FAILED
,,,,,,,
Test Cases/Login/Automation Test Approver,Edge Chromium 88,Direct to Automation Test Submitter,,2021-02-15 22:03:53,2021-02-15 22:05:07,1m - 13.402s,PASSED
"callTestCase(findTestCase(""Login/Login - Neva""), [""email"":""neva.ramadhan@xsis.net"", ""password"":""!6SdiP""], STOP_ON_FAILURE)",Edge Chromium 88,,,2021-02-15 22:03:54,2021-02-15 22:05:06,1m - 11.560s,PASSED
"switchToWindowTitle(""Welcome to New TESSA"")",Edge Chromium 88,,,2021-02-15 22:05:06,2021-02-15 22:05:06,0.086s,PASSED
waitForPageLoad(3),Edge Chromium 88,,,2021-02-15 22:05:06,2021-02-15 22:05:06,0.059s,PASSED
"click(findTestObject(""Login/dropdown_role2""))",Edge Chromium 88,,,2021-02-15 22:05:06,2021-02-15 22:05:06,0.296s,PASSED
"click(findTestObject(""Login/button_Automation Test Approver""))",Edge Chromium 88,,,2021-02-15 22:05:06,2021-02-15 22:05:07,0.636s,PASSED
,,,,,,,
Test Cases/Diem Value/diem value,Edge Chromium 88,,,2021-02-15 22:05:07,2021-02-15 22:05:39,32.573s,FAILED
"click(findTestObject(""Dashboard/button_Setup""))",Edge Chromium 88,,,2021-02-15 22:05:07,2021-02-15 22:05:39,31.986s,FAILED
,,,,,,,
Test Cases/Login/Automation Test Submitter,Edge Chromium 88,Direct to Automation Test Submitter,,2021-02-15 22:05:39,2021-02-15 22:06:37,57.359s,PASSED
"callTestCase(findTestCase(""Login/Login - Della""), [:], STOP_ON_FAILURE)",Edge Chromium 88,,,2021-02-15 22:05:40,2021-02-15 22:06:36,55.833s,PASSED
"switchToWindowTitle(""Welcome to New TESSA"")",Edge Chromium 88,,,2021-02-15 22:06:36,2021-02-15 22:06:36,0.070s,PASSED
waitForPageLoad(3),Edge Chromium 88,,,2021-02-15 22:06:36,2021-02-15 22:06:36,0.021s,PASSED
"click(findTestObject(""Login/dropdown_role""))",Edge Chromium 88,,,2021-02-15 22:06:36,2021-02-15 22:06:36,0.355s,PASSED
"click(findTestObject(""Login/button_Automation Test Submitter""))",Edge Chromium 88,,,2021-02-15 22:06:36,2021-02-15 22:06:37,0.691s,PASSED
,,,,,,,
Test Cases/Diem Value/diem value,Edge Chromium 88,,,2021-02-15 22:06:37,2021-02-15 22:06:39,1.889s,PASSED
"click(findTestObject(""Dashboard/button_Setup""))",Edge Chromium 88,,,2021-02-15 22:06:37,2021-02-15 22:06:38,0.967s,PASSED
"click(findTestObject(""Dashboard/button_Diem Value""))",Edge Chromium 88,,,2021-02-15 22:06:38,2021-02-15 22:06:39,0.894s,PASSED
,,,,,,,
Test Cases/Login/Named Account BDM,Edge Chromium 88,Direct to Automation Test Submitter,,2021-02-15 22:06:39,2021-02-15 22:07:33,54.726s,PASSED
"callTestCase(findTestCase(""Login/Login - Neva""), [""email"":""neva.ramadhan@xsis.net"", ""password"":""!6SdiP""], STOP_ON_FAILURE)",Edge Chromium 88,,,2021-02-15 22:06:39,2021-02-15 22:07:32,53.265s,PASSED
"switchToWindowTitle(""Welcome to New TESSA"")",Edge Chromium 88,,,2021-02-15 22:07:32,2021-02-15 22:07:32,0.049s,PASSED
waitForPageLoad(3),Edge Chromium 88,,,2021-02-15 22:07:32,2021-02-15 22:07:32,0.030s,PASSED
"click(findTestObject(""Login/dropdown_role2""))",Edge Chromium 88,,,2021-02-15 22:07:32,2021-02-15 22:07:33,0.237s,PASSED
"click(findTestObject(""Login/button_Named Account BDM""))",Edge Chromium 88,,,2021-02-15 22:07:33,2021-02-15 22:07:33,0.706s,PASSED
,,,,,,,
Test Cases/Diem Value/diem value,Edge Chromium 88,,,2021-02-15 22:07:33,2021-02-15 22:08:06,32.148s,FAILED
"click(findTestObject(""Dashboard/button_Setup""))",Edge Chromium 88,,,2021-02-15 22:07:33,2021-02-15 22:08:06,32.135s,FAILED
,,,,,,,
Test Cases/Login/Curriculum Specialist,Edge Chromium 88,Direct to Automation Test Submitter,,2021-02-15 22:08:06,2021-02-15 22:09:53,1m - 47.351s,FAILED
"callTestCase(findTestCase(""Login/Login - Della""), [""email"":""della.mutiara@xsis.net"", ""password"":""wD1BuJ&""], STOP_ON_FAILURE)",Edge Chromium 88,,,2021-02-15 22:08:06,2021-02-15 22:09:18,1m - 11.906s,PASSED
"switchToWindowTitle(""Welcome to New TESSA"")",Edge Chromium 88,,,2021-02-15 22:09:18,2021-02-15 22:09:18,0.102s,PASSED
waitForPageLoad(3),Edge Chromium 88,,,2021-02-15 22:09:18,2021-02-15 22:09:18,0.039s,PASSED
"click(findTestObject(""Login/dropdown_role""))",Edge Chromium 88,,,2021-02-15 22:09:18,2021-02-15 22:09:53,35.001s,FAILED
,,,,,,,
Test Cases/Diem Value/diem value,Edge Chromium 88,,,2021-02-15 22:09:53,2021-02-15 22:09:57,3.888s,FAILED
"click(findTestObject(""Dashboard/button_Setup""))",Edge Chromium 88,,,2021-02-15 22:09:53,2021-02-15 22:09:57,3.877s,FAILED
